{
  "elements": [
    {
      "element": {
        "element_type": "structure_gel:gel_single_pool_element",
        "location": "dungeons_plus:leviathan/temple/main_room_0",
        "maintainWater": false,
        "processors": "dungeons_plus:leviathan_archaeology_many",
        "projection": "rigid"
      },
      "weight": 1
    }
  ],
  "fallback": "minecraft:empty"
}